{
	"name": "Contactus",
	"version": "1.1.1",
	"author": "[https://www.wikiskripta.eu/w/User:Josmart Josef Martiňák]",
	"url": "https://bitbucket.org/wikiskripta/contactus",
	"descriptionmsg": "contactus-desc",
	"license-name": "MIT",
	"type": "specialpage",
	"status": "stable",
	"requires": {
		"MediaWiki": ">= 1.36.0"
	},
	"SpecialPages": {
		"Contactus": "Contactus"
	},
	"MessagesDirs": {
		"Contactus": [
			"i18n"
		]
	},
	"ExtensionMessagesFiles": {
		"ContactusMagic": "Contactus.i18n.magic.php"
	},
	"AutoloadClasses": {
		"ContactusHooks": "ContactusHooks.php",
		"Contactus": "Contactus_body.php"
	},
	"config": {
		"ContactusFieldsSpecial": {
			"value": ["photo", "degree", "email", "workplace", "projects", "note"],
			"description": "Fields displayed at special page."
		},
		"ContactusFieldsCard": {
			"value": ["degree", "email", "workplace", "projects", "photo"],
			"description": "Fields displayed at visit card."
		},
		"ContactusFieldsTable": {
			"value": ["degree", "email", "workplace", "projects", "photo"],
			"description": "Fields displayed at the table view."
		}
	},
	"ResourceModules": {
		"ext.Contactus": {
			"position": "top",
			"styles": [
				"ext.Contactus.css"
			],
			"scripts": [
				"clipboard.min.js",
				"noty/js/noty/packaged/jquery.noty.packaged.min.js",
				"ext.Contactus.js"
			],
			"messages": [
				"contactus-save",
				"contactus-cancel",
				"contactus-remove-confirm",
				"contactus-removed",
				"contactus-remove-project-confirm",
				"contactus-removed-project",
				"contactus-success",
				"contactus-embed-copied",
				"contactus-validation-error",
				"contactus-project-validation-error",
				"contactus-err-related-contacts",
				"contactus-photo-help",
				"contactus-name",
				"contactus-surname",
				"contactus-note",
				"contactus-www",
				"contactus-jobtitle",
				"contactus-workplace",
				"contactus-place",
				"contactus-projects",
				"contactus-isrecent",
				"contactus-phone",
				"contactus-tit"
			]
		}
	},
	"ResourceFileModulePaths": {
		"localBasePath": "resources",
		"remoteExtPath": "Contactus/resources"
	},
	"Hooks": {
		"LoadExtensionSchemaUpdates": "ContactusHooks::ContactusUpdateSchema",
		"ParserFirstCallInit": "ContactusHooks::efContactus_Setup"
	},
	"manifest_version": 2
}
